multiplexer.vcd
$date
	Sat Sep 22 15:20:53 2018
$end
$version
	Icarus Verilog
$end
$timescale
	1ps
$end
$scope module behavioralMultiplexer $end
$var wire 1 ! address0 $end
$var wire 1 " address1 $end
$var wire 1 # in0 $end
$var wire 1 $ in1 $end
$var wire 1 % in2 $end
$var wire 1 & in3 $end
$var wire 1 ' out $end
$var wire 4 ( inputs [3:0] $end
$var wire 2 ) address [1:0] $end
$upscope $end
$scope module testMultiplexer $end
$var wire 1 * out3 $end
$var wire 1 + out2 $end
$var wire 1 , out1 $end
$var wire 1 - out0 $end
$var wire 1 . out $end
$var reg 1 / address0 $end
$var reg 1 0 address1 $end
$var reg 1 1 in0 $end
$var reg 1 2 in1 $end
$var reg 1 3 in2 $end
$var reg 1 4 in3 $end
$scope module multiplexer $end
$var wire 1 / address0 $end
$var wire 1 0 address1 $end
$var wire 1 1 in0 $end
$var wire 1 2 in1 $end
$var wire 1 3 in2 $end
$var wire 1 4 in3 $end
$var wire 1 5 naddress0 $end
$var wire 1 6 naddress1 $end
$var wire 1 . out $end
$var wire 1 * out3 $end
$var wire 1 + out2 $end
$var wire 1 , out1 $end
$var wire 1 - out0 $end
$scope module oupput1 $end
$var wire 1 5 a0 $end
$var wire 1 0 a1 $end
$var wire 1 2 in $end
$var wire 1 7 not_out $end
$var wire 1 , out $end
$upscope $end
$scope module output0 $end
$var wire 1 5 a0 $end
$var wire 1 6 a1 $end
$var wire 1 1 in $end
$var wire 1 8 not_out $end
$var wire 1 - out $end
$upscope $end
$scope module output2 $end
$var wire 1 / a0 $end
$var wire 1 6 a1 $end
$var wire 1 3 in $end
$var wire 1 9 not_out $end
$var wire 1 + out $end
$upscope $end
$scope module output3 $end
$var wire 1 / a0 $end
$var wire 1 0 a1 $end
$var wire 1 4 in $end
$var wire 1 : not_out $end
$var wire 1 * out $end
$upscope $end
$upscope $end
$upscope $end
$enddefinitions $end
#0
$dumpvars
x:
x9
x8
x7
x6
x5
04
03
02
01
00
0/
x.
x-
x,
x+
x*
bz )
bz (
x'
z&
z%
z$
z#
z"
z!
$end
#50000
16
15
0*
0:
0+
09
0-
0,
07
#100000
18
0.
#1000000
11
#1050000
1-
#1100000
1.
#2000000
01
10
#2050000
0-
06
17
#2100000
0.
08
#3000000
12
#3050000
1,
#3100000
1.
#4000000
02
00
1/
#4050000
0,
16
07
05
#4100000
0.
19
#5000000
13
#5050000
1+
#5100000
1.
#6000000
03
10
#6050000
0+
06
1:
#6100000
0.
09
#7000000
14
#7050000
1*
#7100000
1.
